Part 2 - Data Wrangling and Analysis
…
Yay! we got it. The only problem is that now we have created a lot of
auxiliary (no longer needed) columns. Let’s get rid of some them. We
will accomplish this via select(). This function works in
two ways: remove or keeping columns from existing data table object.

# remove undesired columns
wheat_yield_2 %>%
select(-weight_lb,-range) # removing two columns

## # A tibble: 69 × 15
##    date                  row trial plot  moist…¹ test_…² weigh…³ dry_w…⁴ dry_w…⁵
##    <dttm>              <dbl> <chr> <fct>   <dbl>   <dbl>   <dbl>   <dbl>   <dbl>
##  1 2022-06-15 00:00:00     2 Fung… 101      11.9      36    5.22   0.881    4.60
##  2 2022-06-15 00:00:00     2 Fung… 102      12.1       5    6.29   0.879    5.53
##  3 2022-06-15 00:00:00     2 Fung… 103      11.9       8    5.19   0.881    4.57
##  4 2022-06-15 00:00:00     2 Fung… 104      12        19    6.79   0.88     5.98
##  5 2022-06-15 00:00:00     2 Fung… 105      11.9      46    6.48   0.881    5.71
##  6 2022-06-15 00:00:00     3 Fung… 201      12        30    5.62   0.88     4.95
##  7 2022-06-15 00:00:00     3 Fung… 202      12.1      48    6.80   0.879    5.98
##  8 2022-06-15 00:00:00     3 Fung… 203      11.9      18    5.33   0.881    4.69
##  9 2022-06-15 00:00:00     3 Fung… 204      12.1      15    6.73   0.879    5.91
## 10 2022-06-15 00:00:00     3 Fung… 205      12.2      31    7.04   0.878    6.18
## # … with 59 more rows, 6 more variables: weight_13.5_kg <dbl>, area_ft2 <dbl>,
## #   acre <dbl>, hec <dbl>, yield_kg_ha <dbl>, yield_bu_a <dbl>, and abbreviated
## #   variable names ¹​moisture_percent, ²​test_weight_lb_bu, ³​weight_kg,
## #   ⁴​dry_weight, ⁵​dry_weight_kg
…
